test_run_dir/CounterTest1969090070/Counter.vcd
$version Generated by VerilatedVcd $end
$date Sun May  8 15:05:57 2022
 $end
$timescale   1ps $end

 $scope module TOP $end
  $var wire  1 $ clock $end
  $var wire  4 ' io_amt [3:0] $end
  $var wire  1 & io_inc $end
  $var wire  8 ( io_tot [7:0] $end
  $var wire  1 % reset $end
  $scope module Counter $end
   $var wire  8 # REG [7:0] $end
   $var wire  1 $ clock $end
   $var wire  4 ' io_amt [3:0] $end
   $var wire  1 & io_inc $end
   $var wire  8 ( io_tot [7:0] $end
   $var wire  1 % reset $end
  $upscope $end
 $upscope $end
$enddefinitions $end


#0
b00000000 #
0$
1%
0&
b0000 '
b00000000 (
#1
1$
#2
0$
#3
1$
#4
0$
#5
1$
#6
0$
#7
1$
#8
0$
#9
1$
#10
0$
0%
#11
1$
#12
0$
#13
1$
#14
0$
#15
1$
#16
0$
#17
1$
#18
0$
#19
1$
#20
0$
b1111 '
#21
1$
#22
0$
#23
1$
#24
0$
b0100 '
#25
1$
#26
0$
1&
b0111 '
#27
b00000111 #
1$
b00000111 (
#28
0$
b0100 '
#29
b00001011 #
1$
b00001011 (
#30
0$
0&
b0001 '
#31
1$
#32
0$
1&
b1100 '
#33
b00010111 #
1$
b00010111 (
#34
0$
b1111 '
#35
b00100110 #
1$
b00100110 (
#36
0$
0&
#37
1$
#38
0$
1&
b1011 '
#39
b00110001 #
1$
b00110001 (
#40
0$
#41
b00111100 #
1$
b00111100 (
#42
0$
0&
b1111 '
#43
1$
#44
0$
b0010 '
#45
1$
#46
0$
b0000 '
#47
1$
#48
0$
1&
b0101 '
#49
b01000001 #
1$
b01000001 (
#50
0$
b0000 '
#51
1$
#52
0$
b1100 '
#53
b01001101 #
1$
b01001101 (
#54
0$
0&
b0110 '
#55
1$
#56
0$
1&
b0111 '
#57
b01010100 #
1$
b01010100 (
#58
0$
0&
b0000 '
#59
1$
#60
0$
1&
b0001 '
#61
b01010101 #
1$
b01010101 (
#62
0$
0&
b1010 '
#63
1$
#64
0$
b1011 '
#65
1$
#66
0$
1&
b1010 '
#67
b01011111 #
1$
b01011111 (
#68
0$
0&
b1101 '
#69
1$
#70
0$
b1000 '
#71
1$
#72
0$
b0110 '
#73
1$
#74
0$
1&
b0100 '
#75
b01100011 #
1$
b01100011 (
#76
0$
0&
b0001 '
#77
1$
#78
0$
1&
b0010 '
#79
b01100101 #
1$
b01100101 (
#80
0$
0&
b1100 '
#81
1$
#82
0$
b1110 '
#83
1$
#84
0$
b0010 '
#85
1$
#86
0$
1&
b0100 '
#87
b01101001 #
1$
b01101001 (
#88
0$
0&
b1101 '
#89
1$
#90
0$
1&
b0000 '
#91
1$
#92
0$
0&
b0110 '
#93
1$
#94
0$
b0001 '
#95
1$
#96
0$
1&
b1100 '
#97
b01110101 #
1$
b01110101 (
#98
0$
b0010 '
#99
b01110111 #
1$
b01110111 (
#100
0$
b1001 '
#101
b10000000 #
1$
b10000000 (
#102
0$
0&
b1101 '
#103
1$
#104
0$
1&
b0110 '
#105
b10000110 #
1$
b10000110 (
#106
0$
0&
b1111 '
#107
1$
#108
0$
1&
b0110 '
#109
b10001100 #
1$
b10001100 (
#110
0$
0&
b0111 '
#111
1$
#112
0$
1&
b1011 '
#113
b10010111 #
1$
b10010111 (
#114
0$
0&
b0101 '
#115
1$
#116
0$
b1001 '
#117
1$
#118
0$
1&
b1101 '
#119
b10100100 #
1$
b10100100 (
#120
0$
0&
b1110 '
#121
1$
#122
0$
1&
b1000 '
#123
b10101100 #
1$
b10101100 (
#124
0$
0&
b1001 '
#125
1$
#126
0$
1&
b0010 '
#127
b10101110 #
1$
b10101110 (
#128
0$
b0101 '
#129
b10110011 #
1$
b10110011 (
#130
0$
0&
b1010 '
#131
1$
#132
0$
b0101 '
#133
1$
#134
0$
b0100 '
#135
1$
#136
0$
1&
b0000 '
#137
1$
#138
0$
b0111 '
#139
b10111010 #
1$
b10111010 (
#140
0$
b0100 '
#141
b10111110 #
1$
b10111110 (
#142
0$
0&
b0010 '
#143
1$
#144
0$
b1011 '
#145
1$
#146
0$
1&
b1010 '
#147
b11001000 #
1$
b11001000 (
#148
0$
b0110 '
#149
b11001110 #
1$
b11001110 (
#150
0$
b0111 '
#151
b11010101 #
1$
b11010101 (
#152
0$
0&
b0001 '
#153
1$
#154
0$
1&
b1011 '
#155
b11100000 #
1$
b11100000 (
#156
0$
0&
b0000 '
#157
1$
#158
0$
1&
b0001 '
#159
b11100001 #
1$
b11100001 (
#160
0$
b0110 '
#161
b11100111 #
1$
b11100111 (
#162
0$
#163
b11101101 #
1$
b11101101 (
#164
0$
b0001 '
#165
b11101110 #
1$
b11101110 (
#166
0$
b1000 '
#167
b11110110 #
1$
b11110110 (
#168
0$
0&
b1100 '
#169
1$
#170
0$
b0011 '
#171
1$
#172
0$
1&
b1100 '
#173
b00000010 #
1$
b00000010 (
#174
0$
b1000 '
#175
b00001010 #
1$
b00001010 (
#176
0$
b1001 '
#177
b00010011 #
1$
b00010011 (
#178
0$
b0100 '
#179
b00010111 #
1$
b00010111 (
#180
0$
b1100 '
#181
b00100011 #
1$
b00100011 (
#182
0$
b1110 '
#183
b00110001 #
1$
b00110001 (
#184
0$
0&
b0011 '
#185
1$
#186
0$
1&
b1100 '
#187
b00111101 #
1$
b00111101 (
#188
0$
b1011 '
#189
b01001000 #
1$
b01001000 (
#190
0$
b0010 '
#191
b01001010 #
1$
b01001010 (
#192
0$
b0001 '
#193
b01001011 #
1$
b01001011 (
#194
0$
0&
b0000 '
#195
1$
#196
0$
1&
b1100 '
#197
b01010111 #
1$
b01010111 (
#198
0$
b1101 '
#199
b01100100 #
1$
b01100100 (
#200
0$
0&
b0111 '
#201
1$
#202
0$
1&
b0000 '
#203
1$
#204
0$
b0010 '
#205
b01100110 #
1$
b01100110 (
#206
0$
b1001 '
#207
b01101111 #
1$
b01101111 (
#208
0$
0&
b1000 '
#209
1$
#210
0$
1&
b1001 '
#211
b01111000 #
1$
b01111000 (
#212
0$
0&
b0111 '
#213
1$
#214
0$
b0011 '
#215
1$
#216
0$
1&
b1000 '
#217
b10000000 #
1$
b10000000 (
#218
0$
0&
b0000 '
#219
1$
#220
0$
b0010 '
#221
1$
#222
0$
1&
b1100 '
#223
b10001100 #
1$
b10001100 (
#224
0$
0&
b0001 '
#225
1$
#226
0$
b1111 '
#227
1$
#228
0$
1&
b0100 '
#229
b10010000 #
1$
b10010000 (
#230
0$
b1001 '
#231
b10011001 #
1$
b10011001 (
#232
0$
b0011 '
#233
b10011100 #
1$
b10011100 (
#234
0$
0&
b0100 '
#235
1$
#236
0$
b0111 '
#237
1$
#238
0$
b1100 '
#239
1$
#240
0$
b1001 '
#241
1$
#242
0$
1&
b0001 '
#243
b10011101 #
1$
b10011101 (
#244
0$
b0111 '
#245
b10100100 #
1$
b10100100 (
#246
0$
0&
#247
1$
#248
0$
1&
b1110 '
#249
b10110010 #
1$
b10110010 (
#250
0$
b1000 '
#251
b10111010 #
1$
b10111010 (
#252
0$
b0000 '
#253
1$
#254
0$
b0001 '
#255
b10111011 #
1$
b10111011 (
#256
0$
0&
b1001 '
#257
1$
#258
0$
b1110 '
#259
1$
#260
0$
b1111 '
#261
1$
#262
0$
b0111 '
#263
1$
#264
0$
1&
b1000 '
#265
b11000011 #
1$
b11000011 (
#266
0$
0&
b0111 '
#267
1$
#268
0$
b0010 '
#269
1$
#270
0$
b0011 '
#271
1$
#272
0$
1&
b1100 '
#273
b11001111 #
1$
b11001111 (
#274
0$
0&
b0101 '
#275
1$
#276
0$
1&
b1001 '
#277
b11011000 #
1$
b11011000 (
#278
0$
b1010 '
#279
b11100010 #
1$
b11100010 (
#280
0$
0&
b1100 '
#281
1$
#282
0$
b1000 '
#283
1$
#284
0$
#285
1$
#286
0$
1&
b1011 '
#287
b11101101 #
1$
b11101101 (
#288
0$
b1101 '
#289
b11111010 #
1$
b11111010 (
#290
0$
0&
b1001 '
#291
1$
#292
0$
1&
b1010 '
#293
b00000100 #
1$
b00000100 (
#294
0$
0&
b0110 '
#295
1$
#296
0$
1&
#297
b00001010 #
1$
b00001010 (
#298
0$
b1100 '
#299
b00010110 #
1$
b00010110 (
#300
0$
0&
b0111 '
#301
1$
#302
0$
1&
b1010 '
#303
b00100000 #
1$
b00100000 (
#304
0$
b1110 '
#305
b00101110 #
1$
b00101110 (
#306
0$
b1011 '
#307
b00111001 #
1$
b00111001 (
#308
0$
0&
b1110 '
#309
1$
#310
0$
1&
b1010 '
#311
b01000011 #
1$
b01000011 (
#312
0$
0&
b0011 '
#313
1$
#314
0$
1&
#315
b01000110 #
1$
b01000110 (
#316
0$
0&
b0100 '
#317
1$
#318
0$
1&
b0110 '
#319
b01001100 #
1$
b01001100 (
#320
0$
0&
b0100 '
#321
1$
#322
0$
b1101 '
#323
1$
#324
0$
1&
b0000 '
#325
1$
#326
0$
b1101 '
#327
b01011001 #
1$
b01011001 (
#328
0$
b0010 '
#329
b01011011 #
1$
b01011011 (
#330
0$
b1110 '
#331
b01101001 #
1$
b01101001 (
#332
0$
0&
b0101 '
#333
1$
#334
0$
b0100 '
#335
1$
#336
0$
b1111 '
#337
1$
#338
0$
1&
b0101 '
#339
b01101110 #
1$
b01101110 (
#340
0$
b0100 '
#341
b01110010 #
1$
b01110010 (
#342
0$
0&
b1101 '
#343
1$
#344
0$
b0101 '
#345
1$
#346
0$
1&
b0000 '
#347
1$
#348
0$
0&
b1011 '
#349
1$
#350
0$
b0111 '
#351
1$
#352
0$
b0000 '
#353
1$
#354
0$
1&
b0011 '
#355
b01110101 #
1$
b01110101 (
#356
0$
#357
b01111000 #
1$
b01111000 (
#358
0$
b1010 '
#359
b10000010 #
1$
b10000010 (
#360
0$
b0110 '
#361
b10001000 #
1$
b10001000 (
#362
0$
b1101 '
#363
b10010101 #
1$
b10010101 (
#364
0$
b1001 '
#365
b10011110 #
1$
b10011110 (
#366
0$
b1110 '
#367
b10101100 #
1$
b10101100 (
#368
0$
0&
b0010 '
#369
1$
#370
0$
b1100 '
#371
1$
#372
0$
b0001 '
#373
1$
#374
0$
b1110 '
#375
1$
#376
0$
1&
b1010 '
#377
b10110110 #
1$
b10110110 (
#378
0$
b1011 '
#379
b11000001 #
1$
b11000001 (
#380
0$
b1000 '
#381
b11001001 #
1$
b11001001 (
#382
0$
b1001 '
#383
b11010010 #
1$
b11010010 (
#384
0$
0&
b1011 '
#385
1$
#386
0$
b1001 '
#387
1$
#388
0$
1&
b0101 '
#389
b11010111 #
1$
b11010111 (
#390
0$
b0001 '
#391
b11011000 #
1$
b11011000 (
#392
0$
0&
b0011 '
#393
1$
#394
0$
1&
b1111 '
#395
b11100111 #
1$
b11100111 (
#396
0$
b0010 '
#397
b11101001 #
1$
b11101001 (
#398
0$
b0000 '
#399
1$
#400
0$
b0100 '
#401
b11101101 #
1$
b11101101 (
#402
0$
b1010 '
#403
b11110111 #
1$
b11110111 (
#404
0$
b1000 '
#405
b11111111 #
1$
b11111111 (
#406
0$
0&
b1110 '
#407
1$
#408
0$
1&
b1100 '
#409
b00001011 #
1$
b00001011 (
#410
0$
0&
b1010 '
#411
1$
#412
0$
b0010 '
#413
1$
#414
0$
b1111 '
#415
1$
#416
0$
b1100 '
#417
1$
#418
0$
1&
b1010 '
#419
b00010101 #
1$
b00010101 (
