test_run_dir/CounterTest851894621/Counter.vcd
$version Generated by VerilatedVcd $end
$date Fri May  6 22:16:45 2022
 $end
$timescale   1ps $end

 $scope module TOP $end
  $var wire  1 $ clock $end
  $var wire  4 ' io_amt [3:0] $end
  $var wire  1 & io_inc $end
  $var wire  8 ( io_tot [7:0] $end
  $var wire  1 % reset $end
  $scope module Counter $end
   $var wire  8 # REG [7:0] $end
   $var wire  1 $ clock $end
   $var wire  4 ' io_amt [3:0] $end
   $var wire  1 & io_inc $end
   $var wire  8 ( io_tot [7:0] $end
   $var wire  1 % reset $end
  $upscope $end
 $upscope $end
$enddefinitions $end


#0
b00000000 #
0$
1%
0&
b0000 '
b00000000 (
#1
1$
#2
0$
#3
1$
#4
0$
#5
1$
#6
0$
#7
1$
#8
0$
#9
1$
#10
0$
0%
#11
1$
#12
0$
#13
1$
#14
0$
#15
1$
#16
0$
#17
1$
#18
0$
#19
1$
#20
0$
1&
b0001 '
#21
b00000001 #
1$
b00000001 (
#22
0$
0&
b1111 '
#23
1$
#24
0$
1&
b1110 '
#25
b00001111 #
1$
b00001111 (
#26
0$
b1001 '
#27
b00011000 #
1$
b00011000 (
#28
0$
0&
b1111 '
#29
1$
#30
0$
1&
b0011 '
#31
b00011011 #
1$
b00011011 (
#32
0$
0&
b0101 '
#33
1$
#34
0$
1&
b1110 '
#35
b00101001 #
1$
b00101001 (
#36
0$
0&
#37
1$
#38
0$
b1011 '
#39
1$
#40
0$
b1111 '
#41
1$
#42
0$
b0010 '
#43
1$
#44
0$
1&
b1100 '
#45
b00110101 #
1$
b00110101 (
#46
0$
0&
b1010 '
#47
1$
#48
0$
b0010 '
#49
1$
#50
0$
1&
b1111 '
#51
b01000100 #
1$
b01000100 (
#52
0$
0&
b0100 '
#53
1$
#54
0$
1&
b1001 '
#55
b01001101 #
1$
b01001101 (
#56
0$
b0111 '
#57
b01010100 #
1$
b01010100 (
#58
0$
b1000 '
#59
b01011100 #
1$
b01011100 (
#60
0$
b0101 '
#61
b01100001 #
1$
b01100001 (
#62
0$
0&
b1000 '
#63
1$
#64
0$
#65
1$
#66
0$
b0110 '
#67
1$
#68
0$
b1111 '
#69
1$
#70
0$
1&
b0011 '
#71
b01100100 #
1$
b01100100 (
#72
0$
b0001 '
#73
b01100101 #
1$
b01100101 (
#74
0$
b1010 '
#75
b01101111 #
1$
b01101111 (
#76
0$
0&
b1000 '
#77
1$
#78
0$
1&
b0001 '
#79
b01110000 #
1$
b01110000 (
#80
0$
0&
b1000 '
#81
1$
#82
0$
b0000 '
#83
1$
#84
0$
b1010 '
#85
1$
#86
0$
b1110 '
#87
1$
#88
0$
1&
b1011 '
#89
b01111011 #
1$
b01111011 (
#90
0$
0&
b1001 '
#91
1$
#92
0$
1&
b1101 '
#93
b10001000 #
1$
b10001000 (
#94
0$
0&
b1111 '
#95
1$
#96
0$
1&
b0001 '
#97
b10001001 #
1$
b10001001 (
#98
0$
b1000 '
#99
b10010001 #
1$
b10010001 (
#100
0$
0&
b1100 '
#101
1$
#102
0$
1&
b1010 '
#103
b10011011 #
1$
b10011011 (
#104
0$
b0000 '
#105
1$
#106
0$
0&
#107
1$
#108
0$
b0111 '
#109
1$
#110
0$
1&
b0000 '
#111
1$
#112
0$
0&
b0110 '
#113
1$
#114
0$
1&
b0010 '
#115
b10011101 #
1$
b10011101 (
#116
0$
b1100 '
#117
b10101001 #
1$
b10101001 (
#118
0$
0&
b1111 '
#119
1$
#120
0$
b0001 '
#121
1$
#122
0$
1&
b1000 '
#123
b10110001 #
1$
b10110001 (
#124
0$
b0111 '
#125
b10111000 #
1$
b10111000 (
#126
0$
#127
b10111111 #
1$
b10111111 (
#128
0$
0&
b0100 '
#129
1$
#130
0$
1&
b0011 '
#131
b11000010 #
1$
b11000010 (
#132
0$
b1011 '
#133
b11001101 #
1$
b11001101 (
#134
0$
b0010 '
#135
b11001111 #
1$
b11001111 (
#136
0$
0&
b1100 '
#137
1$
#138
0$
b1000 '
#139
1$
#140
0$
1&
b0011 '
#141
b11010010 #
1$
b11010010 (
#142
0$
b1011 '
#143
b11011101 #
1$
b11011101 (
#144
0$
0&
b0100 '
#145
1$
#146
0$
#147
1$
#148
0$
b0011 '
#149
1$
#150
0$
b1010 '
#151
1$
#152
0$
b1000 '
#153
1$
#154
0$
1&
b0111 '
#155
b11100100 #
1$
b11100100 (
#156
0$
0&
b1011 '
#157
1$
#158
0$
b1000 '
#159
1$
#160
0$
b0111 '
#161
1$
#162
0$
b1100 '
#163
1$
#164
0$
1&
b1010 '
#165
b11101110 #
1$
b11101110 (
#166
0$
0&
b1001 '
#167
1$
#168
0$
b0011 '
#169
1$
#170
0$
b1010 '
#171
1$
#172
0$
1&
b0100 '
#173
b11110010 #
1$
b11110010 (
#174
0$
0&
b0000 '
#175
1$
#176
0$
1&
b1010 '
#177
b11111100 #
1$
b11111100 (
#178
0$
0&
b1101 '
#179
1$
#180
0$
1&
b1111 '
#181
b00001011 #
1$
b00001011 (
#182
0$
0&
b1100 '
#183
1$
#184
0$
1&
b0110 '
#185
b00010001 #
1$
b00010001 (
#186
0$
0&
b0100 '
#187
1$
#188
0$
b1000 '
#189
1$
#190
0$
b0010 '
#191
1$
#192
0$
1&
b1000 '
#193
b00011001 #
1$
b00011001 (
#194
0$
0&
b0000 '
#195
1$
#196
0$
1&
b1010 '
#197
b00100011 #
1$
b00100011 (
#198
0$
b1101 '
#199
b00110000 #
1$
b00110000 (
#200
0$
#201
b00111101 #
1$
b00111101 (
#202
0$
0&
b0100 '
#203
1$
#204
0$
1&
b1010 '
#205
b01000111 #
1$
b01000111 (
#206
0$
0&
b1110 '
#207
1$
#208
0$
1&
b1001 '
#209
b01010000 #
1$
b01010000 (
#210
0$
0&
b1110 '
#211
1$
#212
0$
b0100 '
#213
1$
#214
0$
1&
b0111 '
#215
b01010111 #
1$
b01010111 (
#216
0$
0&
b1001 '
#217
1$
#218
0$
#219
1$
#220
0$
b0110 '
#221
1$
#222
0$
b0001 '
#223
1$
#224
0$
b0110 '
#225
1$
#226
0$
1&
b1001 '
#227
b01100000 #
1$
b01100000 (
#228
0$
0&
b0000 '
#229
1$
#230
0$
b1101 '
#231
1$
#232
0$
b1110 '
#233
1$
#234
0$
b0001 '
#235
1$
#236
0$
1&
#237
b01100001 #
1$
b01100001 (
#238
0$
b1001 '
#239
b01101010 #
1$
b01101010 (
#240
0$
b0101 '
#241
b01101111 #
1$
b01101111 (
#242
0$
b0011 '
#243
b01110010 #
1$
b01110010 (
#244
0$
b0110 '
#245
b01111000 #
1$
b01111000 (
#246
0$
0&
b0011 '
#247
1$
#248
0$
1&
b0110 '
#249
b01111110 #
1$
b01111110 (
#250
0$
0&
b0010 '
#251
1$
#252
0$
1&
b1111 '
#253
b10001101 #
1$
b10001101 (
#254
0$
#255
b10011100 #
1$
b10011100 (
#256
0$
b1110 '
#257
b10101010 #
1$
b10101010 (
#258
0$
b1001 '
#259
b10110011 #
1$
b10110011 (
#260
0$
0&
b0110 '
#261
1$
#262
0$
1&
b0001 '
#263
b10110100 #
1$
b10110100 (
#264
0$
0&
b0010 '
#265
1$
#266
0$
1&
b1001 '
#267
b10111101 #
1$
b10111101 (
#268
0$
0&
b1111 '
#269
1$
#270
0$
1&
b1110 '
#271
b11001011 #
1$
b11001011 (
#272
0$
#273
b11011001 #
1$
b11011001 (
#274
0$
0&
b0100 '
#275
1$
#276
0$
#277
1$
#278
0$
1&
b0011 '
#279
b11011100 #
1$
b11011100 (
#280
0$
b1111 '
#281
b11101011 #
1$
b11101011 (
#282
0$
b0110 '
#283
b11110001 #
1$
b11110001 (
#284
0$
0&
b1111 '
#285
1$
#286
0$
b1110 '
#287
1$
#288
0$
b0001 '
#289
1$
#290
0$
1&
b0000 '
#291
1$
#292
0$
0&
b1010 '
#293
1$
#294
0$
b1001 '
#295
1$
#296
0$
1&
b0010 '
#297
b11110011 #
1$
b11110011 (
#298
0$
0&
b0111 '
#299
1$
#300
0$
1&
b1111 '
#301
b00000010 #
1$
b00000010 (
#302
0$
0&
b1100 '
#303
1$
#304
0$
1&
b0000 '
#305
1$
#306
0$
0&
b1011 '
#307
1$
#308
0$
#309
1$
#310
0$
1&
b0100 '
#311
b00000110 #
1$
b00000110 (
#312
0$
0&
b1001 '
#313
1$
#314
0$
b0001 '
#315
1$
#316
0$
b1101 '
#317
1$
#318
0$
b1011 '
#319
1$
#320
0$
1&
b0010 '
#321
b00001000 #
1$
b00001000 (
#322
0$
b0100 '
#323
b00001100 #
1$
b00001100 (
#324
0$
0&
b1100 '
#325
1$
#326
0$
b1001 '
#327
1$
#328
0$
1&
b1110 '
#329
b00011010 #
1$
b00011010 (
#330
0$
b1101 '
#331
b00100111 #
1$
b00100111 (
#332
0$
b0101 '
#333
b00101100 #
1$
b00101100 (
#334
0$
b1110 '
#335
b00111010 #
1$
b00111010 (
#336
0$
0&
#337
1$
#338
0$
b0111 '
#339
1$
#340
0$
b1010 '
#341
1$
#342
0$
b0010 '
#343
1$
#344
0$
1&
b0001 '
#345
b00111011 #
1$
b00111011 (
#346
0$
b0000 '
#347
1$
#348
0$
0&
b0010 '
#349
1$
#350
0$
b1011 '
#351
1$
#352
0$
1&
b0010 '
#353
b00111101 #
1$
b00111101 (
#354
0$
b0100 '
#355
b01000001 #
1$
b01000001 (
#356
0$
b1000 '
#357
b01001001 #
1$
b01001001 (
#358
0$
b1100 '
#359
b01010101 #
1$
b01010101 (
#360
0$
b1001 '
#361
b01011110 #
1$
b01011110 (
#362
0$
0&
b1100 '
#363
1$
#364
0$
b1010 '
#365
1$
#366
0$
1&
#367
b01101000 #
1$
b01101000 (
#368
0$
#369
b01110010 #
1$
b01110010 (
#370
0$
#371
b01111100 #
1$
b01111100 (
#372
0$
0&
b1111 '
#373
1$
#374
0$
b1010 '
#375
1$
#376
0$
1&
b0100 '
#377
b10000000 #
1$
b10000000 (
#378
0$
b1100 '
#379
b10001100 #
1$
b10001100 (
#380
0$
b0100 '
#381
b10010000 #
1$
b10010000 (
#382
0$
b0101 '
#383
b10010101 #
1$
b10010101 (
#384
0$
b0010 '
#385
b10010111 #
1$
b10010111 (
#386
0$
b0001 '
#387
b10011000 #
1$
b10011000 (
#388
0$
b1100 '
#389
b10100100 #
1$
b10100100 (
#390
0$
0&
b0010 '
#391
1$
#392
0$
1&
b1001 '
#393
b10101101 #
1$
b10101101 (
#394
0$
0&
b1010 '
#395
1$
#396
0$
b1100 '
#397
1$
#398
0$
1&
b0001 '
#399
b10101110 #
1$
b10101110 (
#400
0$
b0111 '
#401
b10110101 #
1$
b10110101 (
#402
0$
b1110 '
#403
b11000011 #
1$
b11000011 (
#404
0$
0&
b1010 '
#405
1$
#406
0$
b1100 '
#407
1$
#408
0$
1&
b0000 '
#409
1$
#410
0$
b0001 '
#411
b11000100 #
1$
b11000100 (
#412
0$
0&
b0000 '
#413
1$
#414
0$
b1110 '
#415
1$
#416
0$
1&
b0110 '
#417
b11001010 #
1$
b11001010 (
#418
0$
b1000 '
#419
b11010010 #
1$
b11010010 (
