test_run_dir/BrCondTest2134473989/BrCondSimple.vcd
$version Generated by VerilatedVcd $end
$date Sun May  8 21:57:10 2022
 $end
$timescale   1ps $end

 $scope module TOP $end
  $var wire  1 ) clock $end
  $var wire  3 - io_br_type [2:0] $end
  $var wire  8 + io_rs1 [7:0] $end
  $var wire  8 , io_rs2 [7:0] $end
  $var wire  1 . io_taken $end
  $var wire  1 * reset $end
  $scope module BrCondSimple $end
   $var wire  1 ) clock $end
   $var wire  1 # eq $end
   $var wire  1 & ge $end
   $var wire  1 ( geu $end
   $var wire  3 - io_br_type [2:0] $end
   $var wire  8 + io_rs1 [7:0] $end
   $var wire  8 , io_rs2 [7:0] $end
   $var wire  1 . io_taken $end
   $var wire  1 % lt $end
   $var wire  1 ' ltu $end
   $var wire  1 $ neq $end
   $var wire  1 * reset $end
  $upscope $end
 $upscope $end
$enddefinitions $end


#0
1#
0$
0%
1&
0'
1(
0)
1*
b00000000 +
b00000000 ,
b000 -
0.
#1
1)
#2
0)
#3
1)
#4
0)
#5
1)
#6
0)
#7
1)
#8
0)
#9
1)
#10
0#
1$
1%
0&
1'
0(
0)
0*
b01001111 +
b01011000 ,
b101 -
#11
1)
#12
0'
1(
0)
b10100101 +
b00010001 ,
b100 -
1.
#13
1)
#14
1'
0(
0)
b00001110 +
b00010110 ,
b011 -
0.
#15
1)
#16
0%
1&
0'
1(
0)
b01101110 +
b01011110 ,
b000 -
#17
1)
#18
0)
b01000001 +
b00111100 ,
b100 -
1.
#19
1)
#20
1'
0(
0)
b00010001 +
b10101111 ,
0.
#21
1)
#22
0'
1(
0)
b01011111 +
b01000101 ,
b000 -
#23
1)
#24
1'
0(
0)
b01110010 +
b10010010 ,
b010 -
#25
1)
#26
1%
0&
0'
1(
0)
b11100110 +
b00111010 ,
b110 -
1.
#27
1)
#28
0%
1&
1'
0(
0)
b01110101 +
b10110000 ,
b111 -
0.
#29
1)
#30
0)
b01110000 +
b10101111 ,
b101 -
1.
#31
1)
#32
0)
b00111101 +
b10010101 ,
b010 -
0.
#33
1)
#34
0)
b01101110 +
b10001111 ,
b001 -
1.
#35
1)
#36
1%
0&
0)
b01000110 +
b01100110 ,
b000 -
0.
#37
1)
#38
0%
1&
0'
1(
0)
b01010110 +
b00010000 ,
b110 -
1.
#39
1)
#40
1%
0&
0)
b11001101 +
b01101100 ,
b101 -
0.
#41
1)
#42
0%
1&
0)
b00101111 +
b00001101 ,
b100 -
1.
#43
1)
#44
1%
0&
0)
b10110100 +
b01111010 ,
b011 -
0.
#45
1)
#46
0%
1&
0)
b11100000 +
b10100110 ,
#47
1)
#48
1%
0&
0)
b11010101 +
b01001100 ,
b001 -
#49
1)
#50
0)
b10101101 +
b01101101 ,
b010 -
1.
#51
1)
#52
0%
1&
0)
b11101001 +
b10010110 ,
b111 -
0.
#53
1)
#54
0)
b01101011 +
b01001010 ,
b000 -
#55
1)
#56
1%
0&
0)
b10111001 +
b00111101 ,
b101 -
#57
1)
#58
0%
1&
0)
b01111110 +
b00111011 ,
b011 -
#59
1)
#60
0)
b10111111 +
b10101111 ,
b001 -
#61
1)
#62
1%
0&
0)
b10001100 +
b01100000 ,
b000 -
#63
1)
#64
0)
b11101010 +
b00101010 ,
b011 -
#65
1)
#66
1'
0(
0)
b10100101 +
b11000010 ,
b111 -
#67
1)
#68
0%
1&
0)
b00101000 +
b11100110 ,
b010 -
#69
1)
#70
0'
1(
0)
b00110100 +
b00011001 ,
b001 -
#71
1)
#72
1'
0(
0)
b00001011 +
b10100001 ,
b100 -
#73
1)
#74
1%
0&
0'
1(
0)
b10100100 +
b01111001 ,
1.
#75
1)
#76
0%
1&
1'
0(
0)
b00100001 +
b10100010 ,
b010 -
0.
#77
1)
#78
0)
b00110100 +
b10001110 ,
#79
1)
#80
0'
1(
0)
b01111010 +
b01110111 ,
b100 -
1.
#81
1)
#82
1%
0&
0)
b10100100 +
b01010101 ,
b001 -
0.
#83
1)
#84
0%
1&
1'
0(
0)
b00111011 +
b11000110 ,
b000 -
#85
1)
#86
0)
b01010110 +
b10001000 ,
b111 -
#87
1)
#88
0)
b01011111 +
b10111001 ,
b010 -
#89
1)
#90
1%
0&
0'
1(
0)
b10011110 +
b00011101 ,
b110 -
1.
#91
1)
#92
0%
1&
1'
0(
0)
b01001000 +
b11011110 ,
b111 -
0.
#93
1)
#94
1%
0&
0)
b01010110 +
b01101001 ,
b110 -
1.
#95
1)
#96
0%
1&
0'
1(
0)
b11110010 +
b10010101 ,
b100 -
#97
1)
#98
1%
0&
1'
0(
0)
b10101100 +
b10111110 ,
b101 -
0.
#99
1)
#100
0'
1(
0)
b10100000 +
b00100011 ,
b000 -
#101
1)
#102
0%
1&
0)
b01001101 +
b00100000 ,
b111 -
#103
1)
#104
1'
0(
0)
b01111000 +
b10011101 ,
b110 -
1.
#105
1)
#106
1%
0&
0'
1(
0)
b10010100 +
b00100011 ,
b101 -
0.
#107
1)
#108
1'
0(
0)
b01000001 +
b01011001 ,
b010 -
1.
#109
1)
#110
0'
1(
0)
b11101110 +
b01010101 ,
b111 -
0.
#111
1)
#112
0%
1&
0)
b00111100 +
b00010111 ,
b010 -
#113
1)
#114
0)
b01011000 +
b00011001 ,
b100 -
1.
#115
1)
#116
1%
0&
1'
0(
0)
b00001101 +
b01101100 ,
b110 -
#117
1)
#118
0%
1&
0'
1(
0)
b00110101 +
b00011110 ,
b000 -
0.
#119
1)
#120
1%
0&
0)
b10001100 +
b01110010 ,
b101 -
#121
1)
#122
0)
b11001110 +
b00001110 ,
b010 -
1.
#123
1)
#124
1'
0(
0)
b10011100 +
b10011101 ,
b111 -
0.
#125
1)
#126
0'
1(
0)
b11001011 +
b00011110 ,
b100 -
1.
#127
1)
#128
0%
1&
1'
0(
0)
b01001111 +
b10001101 ,
b011 -
0.
#129
1)
#130
0)
b00110000 +
b10011111 ,
b100 -
#131
1)
#132
0'
1(
0)
b11011011 +
b10110000 ,
b101 -
1.
#133
1)
#134
1%
0&
1'
0(
0)
b00011101 +
b00110101 ,
b111 -
0.
#135
1)
#136
0)
b00001110 +
b00010011 ,
b110 -
1.
#137
1)
#138
0%
1&
0)
b01101010 +
b11011000 ,
#139
1)
#140
1%
0&
0'
1(
0)
b11110101 +
b01101001 ,
b000 -
0.
#141
1)
#142
0%
1&
1'
0(
0)
b00001010 +
b10000000 ,
b111 -
#143
1)
#144
0)
b01100100 +
b10010110 ,
#145
1)
#146
1%
0&
0'
1(
0)
b11110111 +
b00001100 ,
b101 -
#147
1)
#148
0%
1&
1'
0(
0)
b00000111 +
b10110010 ,
1.
#149
1)
#150
0)
b00011111 +
b11101101 ,
b000 -
0.
#151
1)
#152
0'
1(
0)
b11000010 +
b10110010 ,
b011 -
#153
1)
#154
1%
0&
1'
0(
0)
b10001101 +
b10110100 ,
b001 -
1.
#155
1)
#156
0%
1&
0)
b01010100 +
b10011010 ,
b000 -
0.
#157
1)
#158
0)
b01101011 +
b11011110 ,
b111 -
#159
1)
#160
0)
b01111100 +
b10111100 ,
b011 -
#161
1)
#162
1%
0&
0)
b00110100 +
b01000001 ,
b111 -
#163
1)
#164
0%
1&
0'
1(
0)
b11111111 +
b11101101 ,
b010 -
#165
1)
#166
0)
b01100001 +
b01000110 ,
b101 -
1.
#167
1)
#168
0)
b01100010 +
b01001101 ,
b110 -
#169
1)
#170
1%
0&
0)
b10010100 +
b01101011 ,
b100 -
#171
1)
#172
0%
1&
1'
0(
0)
b01010011 +
b10110001 ,
b111 -
0.
#173
1)
#174
0)
b00001111 +
b11101111 ,
b010 -
#175
1)
#176
0)
b00010010 +
b10001010 ,
b111 -
#177
1)
#178
1%
0&
0'
1(
0)
b11001011 +
b01101010 ,
b110 -
1.
#179
1)
#180
0%
1&
0)
b01000010 +
b00101001 ,
b001 -
0.
#181
1)
#182
1'
0(
0)
b00000011 +
b11000001 ,
b011 -
#183
1)
#184
1%
0&
0)
b00101011 +
b01110101 ,
b000 -
#185
1)
#186
0%
1&
0)
b01100000 +
b10001010 ,
b010 -
#187
1)
#188
1%
0&
0)
b00010110 +
b01000001 ,
b000 -
#189
1)
#190
0%
1&
0)
b01111001 +
b11010001 ,
b010 -
#191
1)
#192
1%
0&
0'
1(
0)
b10000010 +
b00111000 ,
b001 -
#193
1)
#194
0)
b11110100 +
b00111001 ,
b010 -
1.
#195
1)
#196
0%
1&
0)
b01101001 +
b00111000 ,
0.
#197
1)
#198
1'
0(
0)
b00100110 +
b11101011 ,
b100 -
#199
1)
#200
1%
0&
0)
b00011010 +
b01110111 ,
b001 -
1.
#201
1)
#202
0%
1&
0)
b01100000 +
b10100011 ,
b000 -
0.
#203
1)
#204
0)
b01011000 +
b10100100 ,
b101 -
1.
#205
1)
#206
1%
0&
0'
1(
0)
b10101001 +
b01001000 ,
b001 -
0.
#207
1)
#208
0)
b11001101 +
b01110011 ,
b110 -
1.
