test_run_dir/AccumTest28054975/Accum.vcd
$version Generated by VerilatedVcd $end
$date Fri May  6 21:00:01 2022
 $end
$timescale   1ps $end

 $scope module TOP $end
  $var wire  1 $ clock $end
  $var wire  1 & io_in $end
  $var wire  8 ' io_out [7:0] $end
  $var wire  1 % reset $end
  $scope module Accum $end
   $var wire  1 $ clock $end
   $var wire  1 & io_in $end
   $var wire  8 ' io_out [7:0] $end
   $var wire  8 # reg_ [7:0] $end
   $var wire  1 % reset $end
  $upscope $end
 $upscope $end
$enddefinitions $end


#0
b00000000 #
0$
1%
0&
b00000000 '
#1
1$
#2
0$
#3
1$
#4
0$
#5
1$
#6
0$
#7
1$
#8
0$
#9
1$
#10
0$
0%
1&
#11
b00000001 #
1$
b00000001 '
#12
0$
0&
#13
1$
#14
0$
1&
#15
b00000010 #
1$
b00000010 '
#16
0$
#17
b00000011 #
1$
b00000011 '
#18
0$
#19
b00000100 #
1$
b00000100 '
#20
0$
0&
#21
1$
#22
0$
1&
#23
b00000101 #
1$
b00000101 '
#24
0$
0&
#25
1$
#26
0$
1&
#27
b00000110 #
1$
b00000110 '
#28
0$
#29
b00000111 #
1$
b00000111 '
#30
0$
#31
b00001000 #
1$
b00001000 '
#32
0$
#33
b00001001 #
1$
b00001001 '
#34
0$
#35
b00001010 #
1$
b00001010 '
#36
0$
0&
#37
1$
#38
0$
#39
1$
#40
0$
#41
1$
#42
0$
1&
#43
b00001011 #
1$
b00001011 '
#44
0$
0&
#45
1$
#46
0$
#47
1$
#48
0$
#49
1$
#50
0$
1&
#51
b00001100 #
1$
b00001100 '
#52
0$
0&
#53
1$
#54
0$
1&
#55
b00001101 #
1$
b00001101 '
#56
0$
0&
#57
1$
#58
0$
#59
1$
#60
0$
1&
#61
b00001110 #
1$
b00001110 '
#62
0$
#63
b00001111 #
1$
b00001111 '
#64
0$
#65
b00010000 #
1$
b00010000 '
#66
0$
#67
b00010001 #
1$
b00010001 '
#68
0$
#69
b00010010 #
1$
b00010010 '
#70
0$
0&
#71
1$
#72
0$
#73
1$
#74
0$
1&
#75
b00010011 #
1$
b00010011 '
#76
0$
#77
b00010100 #
1$
b00010100 '
#78
0$
#79
b00010101 #
1$
b00010101 '
#80
0$
0&
#81
1$
#82
0$
1&
#83
b00010110 #
1$
b00010110 '
#84
0$
#85
b00010111 #
1$
b00010111 '
#86
0$
0&
#87
1$
#88
0$
#89
1$
#90
0$
1&
#91
b00011000 #
1$
b00011000 '
#92
0$
0&
#93
1$
#94
0$
1&
#95
b00011001 #
1$
b00011001 '
#96
0$
0&
#97
1$
#98
0$
#99
1$
#100
0$
1&
#101
b00011010 #
1$
b00011010 '
#102
0$
#103
b00011011 #
1$
b00011011 '
#104
0$
#105
b00011100 #
1$
b00011100 '
#106
0$
0&
#107
1$
#108
0$
1&
#109
b00011101 #
1$
b00011101 '
#110
0$
0&
#111
1$
#112
0$
#113
1$
#114
0$
1&
#115
b00011110 #
1$
b00011110 '
#116
0$
#117
b00011111 #
1$
b00011111 '
#118
0$
#119
b00100000 #
1$
b00100000 '
#120
0$
#121
b00100001 #
1$
b00100001 '
#122
0$
0&
#123
1$
#124
0$
#125
1$
#126
0$
#127
1$
#128
0$
#129
1$
#130
0$
#131
1$
#132
0$
#133
1$
#134
0$
1&
#135
b00100010 #
1$
b00100010 '
#136
0$
#137
b00100011 #
1$
b00100011 '
#138
0$
#139
b00100100 #
1$
b00100100 '
#140
0$
0&
#141
1$
#142
0$
1&
#143
b00100101 #
1$
b00100101 '
#144
0$
#145
b00100110 #
1$
b00100110 '
#146
0$
#147
b00100111 #
1$
b00100111 '
#148
0$
0&
#149
1$
#150
0$
#151
1$
#152
0$
#153
1$
#154
0$
#155
1$
#156
0$
1&
#157
b00101000 #
1$
b00101000 '
#158
0$
0&
#159
1$
#160
0$
#161
1$
#162
0$
#163
1$
#164
0$
#165
1$
#166
0$
#167
1$
#168
0$
#169
1$
#170
0$
1&
#171
b00101001 #
1$
b00101001 '
#172
0$
0&
#173
1$
#174
0$
#175
1$
#176
0$
#177
1$
#178
0$
#179
1$
#180
0$
1&
#181
b00101010 #
1$
b00101010 '
#182
0$
0&
#183
1$
#184
0$
#185
1$
#186
0$
1&
#187
b00101011 #
1$
b00101011 '
#188
0$
0&
#189
1$
#190
0$
1&
#191
b00101100 #
1$
b00101100 '
#192
0$
0&
#193
1$
#194
0$
#195
1$
#196
0$
#197
1$
#198
0$
#199
1$
#200
0$
1&
#201
b00101101 #
1$
b00101101 '
#202
0$
0&
#203
1$
#204
0$
1&
#205
b00101110 #
1$
b00101110 '
#206
0$
0&
#207
1$
#208
0$
#209
1$
#210
0$
1&
#211
b00101111 #
1$
b00101111 '
#212
0$
#213
b00110000 #
1$
b00110000 '
#214
0$
#215
b00110001 #
1$
b00110001 '
#216
0$
#217
b00110010 #
1$
b00110010 '
#218
0$
#219
b00110011 #
1$
b00110011 '
#220
0$
0&
#221
1$
#222
0$
#223
1$
#224
0$
#225
1$
#226
0$
#227
1$
#228
0$
#229
1$
#230
0$
1&
#231
b00110100 #
1$
b00110100 '
#232
0$
#233
b00110101 #
1$
b00110101 '
#234
0$
0&
#235
1$
#236
0$
1&
#237
b00110110 #
1$
b00110110 '
#238
0$
0&
#239
1$
#240
0$
1&
#241
b00110111 #
1$
b00110111 '
#242
0$
#243
b00111000 #
1$
b00111000 '
#244
0$
#245
b00111001 #
1$
b00111001 '
#246
0$
0&
#247
1$
#248
0$
#249
1$
#250
0$
#251
1$
#252
0$
#253
1$
#254
0$
1&
#255
b00111010 #
1$
b00111010 '
#256
0$
#257
b00111011 #
1$
b00111011 '
#258
0$
#259
b00111100 #
1$
b00111100 '
#260
0$
#261
b00111101 #
1$
b00111101 '
#262
0$
0&
#263
1$
#264
0$
1&
#265
b00111110 #
1$
b00111110 '
#266
0$
#267
b00111111 #
1$
b00111111 '
#268
0$
0&
#269
1$
#270
0$
1&
#271
b01000000 #
1$
b01000000 '
#272
0$
0&
#273
1$
#274
0$
#275
1$
#276
0$
#277
1$
#278
0$
1&
#279
b01000001 #
1$
b01000001 '
#280
0$
#281
b01000010 #
1$
b01000010 '
#282
0$
0&
#283
1$
#284
0$
1&
#285
b01000011 #
1$
b01000011 '
#286
0$
#287
b01000100 #
1$
b01000100 '
#288
0$
0&
#289
1$
#290
0$
1&
#291
b01000101 #
1$
b01000101 '
#292
0$
0&
#293
1$
#294
0$
1&
#295
b01000110 #
1$
b01000110 '
#296
0$
#297
b01000111 #
1$
b01000111 '
#298
0$
#299
b01001000 #
1$
b01001000 '
#300
0$
0&
#301
1$
#302
0$
#303
1$
#304
0$
#305
1$
#306
0$
1&
#307
b01001001 #
1$
b01001001 '
#308
0$
0&
#309
1$
#310
0$
1&
#311
b01001010 #
1$
b01001010 '
#312
0$
#313
b01001011 #
1$
b01001011 '
#314
0$
#315
b01001100 #
1$
b01001100 '
#316
0$
0&
#317
1$
#318
0$
#319
1$
#320
0$
#321
1$
#322
0$
1&
#323
b01001101 #
1$
b01001101 '
#324
0$
#325
b01001110 #
1$
b01001110 '
#326
0$
0&
#327
1$
#328
0$
#329
1$
#330
0$
1&
#331
b01001111 #
1$
b01001111 '
#332
0$
#333
b01010000 #
1$
b01010000 '
#334
0$
0&
#335
1$
#336
0$
1&
#337
b01010001 #
1$
b01010001 '
#338
0$
#339
b01010010 #
1$
b01010010 '
#340
0$
#341
b01010011 #
1$
b01010011 '
#342
0$
0&
#343
1$
#344
0$
#345
1$
#346
0$
1&
#347
b01010100 #
1$
b01010100 '
#348
0$
#349
b01010101 #
1$
b01010101 '
#350
0$
0&
#351
1$
#352
0$
#353
1$
#354
0$
#355
1$
#356
0$
1&
#357
b01010110 #
1$
b01010110 '
#358
0$
0&
#359
1$
#360
0$
1&
#361
b01010111 #
1$
b01010111 '
#362
0$
0&
#363
1$
#364
0$
#365
1$
#366
0$
1&
#367
b01011000 #
1$
b01011000 '
#368
0$
0&
#369
1$
#370
0$
#371
1$
#372
0$
#373
1$
#374
0$
1&
#375
b01011001 #
1$
b01011001 '
#376
0$
#377
b01011010 #
1$
b01011010 '
#378
0$
#379
b01011011 #
1$
b01011011 '
#380
0$
#381
b01011100 #
1$
b01011100 '
#382
0$
0&
#383
1$
#384
0$
1&
#385
b01011101 #
1$
b01011101 '
#386
0$
0&
#387
1$
#388
0$
#389
1$
#390
0$
1&
#391
b01011110 #
1$
b01011110 '
#392
0$
#393
b01011111 #
1$
b01011111 '
#394
0$
0&
#395
1$
#396
0$
#397
1$
#398
0$
#399
1$
#400
0$
1&
#401
b01100000 #
1$
b01100000 '
#402
0$
#403
b01100001 #
1$
b01100001 '
#404
0$
0&
#405
1$
#406
0$
#407
1$
#408
0$
#409
1$
#410
0$
#411
1$
#412
0$
1&
#413
b01100010 #
1$
b01100010 '
#414
0$
0&
#415
1$
#416
0$
#417
1$
#418
0$
#419
1$
#420
0$
#421
1$
#422
0$
1&
#423
b01100011 #
1$
b01100011 '
#424
0$
0&
#425
1$
#426
0$
1&
#427
b01100100 #
1$
b01100100 '
#428
0$
0&
#429
1$
#430
0$
#431
1$
#432
0$
#433
1$
#434
0$
1&
#435
b01100101 #
1$
b01100101 '
#436
0$
0&
#437
1$
#438
0$
#439
1$
#440
0$
1&
#441
b01100110 #
1$
b01100110 '
#442
0$
#443
b01100111 #
1$
b01100111 '
#444
0$
0&
#445
1$
#446
0$
1&
#447
b01101000 #
1$
b01101000 '
#448
0$
#449
b01101001 #
1$
b01101001 '
#450
0$
0&
#451
1$
#452
0$
#453
1$
#454
0$
#455
1$
#456
0$
#457
1$
#458
0$
1&
#459
b01101010 #
1$
b01101010 '
#460
0$
#461
b01101011 #
1$
b01101011 '
#462
0$
0&
#463
1$
#464
0$
#465
1$
#466
0$
#467
1$
#468
0$
#469
1$
#470
0$
1&
#471
b01101100 #
1$
b01101100 '
#472
0$
#473
b01101101 #
1$
b01101101 '
#474
0$
#475
b01101110 #
1$
b01101110 '
#476
0$
0&
#477
1$
#478
0$
#479
1$
#480
0$
1&
#481
b01101111 #
1$
b01101111 '
#482
0$
#483
b01110000 #
1$
b01110000 '
#484
0$
0&
#485
1$
#486
0$
#487
1$
#488
0$
1&
#489
b01110001 #
1$
b01110001 '
#490
0$
0&
#491
1$
#492
0$
#493
1$
#494
0$
1&
#495
b01110010 #
1$
b01110010 '
#496
0$
0&
#497
1$
#498
0$
#499
1$
#500
0$
#501
1$
#502
0$
1&
#503
b01110011 #
1$
b01110011 '
#504
0$
#505
b01110100 #
1$
b01110100 '
#506
0$
0&
#507
1$
#508
0$
#509
1$
#510
0$
#511
1$
#512
0$
#513
1$
#514
0$
#515
1$
#516
0$
1&
#517
b01110101 #
1$
b01110101 '
#518
0$
0&
#519
1$
#520
0$
#521
1$
#522
0$
1&
#523
b01110110 #
1$
b01110110 '
#524
0$
#525
b01110111 #
1$
b01110111 '
#526
0$
#527
b01111000 #
1$
b01111000 '
#528
0$
#529
b01111001 #
1$
b01111001 '
#530
0$
0&
#531
1$
#532
0$
#533
1$
#534
0$
#535
1$
#536
0$
1&
#537
b01111010 #
1$
b01111010 '
#538
0$
0&
#539
1$
#540
0$
1&
#541
b01111011 #
1$
b01111011 '
#542
0$
0&
#543
1$
#544
0$
#545
1$
#546
0$
1&
#547
b01111100 #
1$
b01111100 '
#548
0$
0&
#549
1$
#550
0$
1&
#551
b01111101 #
1$
b01111101 '
#552
0$
#553
b01111110 #
1$
b01111110 '
#554
0$
0&
#555
1$
#556
0$
1&
#557
b01111111 #
1$
b01111111 '
#558
0$
#559
b10000000 #
1$
b10000000 '
#560
0$
0&
#561
1$
#562
0$
1&
#563
b10000001 #
1$
b10000001 '
#564
0$
0&
#565
1$
#566
0$
#567
1$
#568
0$
1&
#569
b10000010 #
1$
b10000010 '
#570
0$
0&
#571
1$
#572
0$
#573
1$
#574
0$
1&
#575
b10000011 #
1$
b10000011 '
#576
0$
0&
#577
1$
#578
0$
1&
#579
b10000100 #
1$
b10000100 '
#580
0$
0&
#581
1$
#582
0$
1&
#583
b10000101 #
1$
b10000101 '
#584
0$
0&
#585
1$
#586
0$
1&
#587
b10000110 #
1$
b10000110 '
#588
0$
#589
b10000111 #
1$
b10000111 '
#590
0$
0&
#591
1$
#592
0$
#593
1$
#594
0$
#595
1$
#596
0$
1&
#597
b10001000 #
1$
b10001000 '
#598
0$
0&
#599
1$
#600
0$
#601
1$
#602
0$
1&
#603
b10001001 #
1$
b10001001 '
#604
0$
0&
